f:\maven\Navigation\nevigation_scene\src\main\java\com\nevigation\Controller\FormNevigationApp.java
f:\maven\Navigation\nevigation_scene\src\main\java\com\nevigation\DataAccess\FormPage1.java
f:\maven\Navigation\nevigation_scene\src\main\java\com\nevigation\DataAccess\FormPage2.java
f:\maven\Navigation\nevigation_scene\src\main\java\com\nevigation\DataAccess\FormPage3.java
f:\maven\Navigation\nevigation_scene\src\main\java\com\nevigation\Main.java
